<svg width="25" height="25" viewBox="0 0 25 25" fill="none" xmlns="http://www.w3.org/2000/svg">
<g clip-path="url(#clip0)">
<path d="M24.6945 6.0347C24.2873 5.62743 23.6289 5.62743 23.2217 6.0347L12.5 16.7563L1.77832 6.0347C1.37105 5.62743 0.712717 5.62743 0.30545 6.0347C-0.101817 6.44196 -0.101817 7.1003 0.30545 7.50757L11.7636 18.9657C11.9667 19.1688 12.2333 19.2709 12.5 19.2709C12.7667 19.2709 13.0334 19.1688 13.2365 18.9657L24.6946 7.50757C25.1018 7.1003 25.1018 6.44196 24.6945 6.0347Z" fill="#F44336"/>
</g>
<defs>
<clipPath id="clip0">
<rect width="25" height="25" fill="white"/>
</clipPath>
</defs>
</svg>
